<svg xmlns="http://www.w3.org/2000/svg" viewBox="0 -1920 1920 1920" enable-background="new 0 0 1920 1920" height="48px"
     width="48px" fill="#FFFFFF">
    <g transform="translate(480,-480)">
        <path d="M198-160 20-480l180-320h160L180-480l104 186 312-506h164l180 320-180 320H600l180-320-104-184-310 504H198Z"/>
    </g>
</svg>
